<?xml version="1.0" encoding="utf-8"?>
<svg id="iconos_movie_SVG" image-rendering="auto" baseProfile="basic" version="1.1" x="0px" y="0px" viewBox="0 0 310 314" xmlns="http://www.w3.org/2000/svg" xmlns:xlink="http://www.w3.org/1999/xlink">
  <g id="Escena-1r1" overflow="visible">
    <g id="v.__C3.__ADdeor1" transform="translate(23.5 37.95)">
      <path fill="#D5B9CF" stroke="none" d="M11.7 256.15L253.05 256.15 253.05 105.9 11.7 105.9 11.7 256.15Z"/>
      <path fill="#0B3D60" stroke="none" d="M166.1 181L108.75 147.9 108.75 214.15 166.1 181Z"/>
      <g id="corte" transform="matrix(.994 -.108 .108 .994 -11.4 1.9)">
        <animateTransform attributeName="transform" additive="replace" type="translate" dur="1.708s" keyTimes="0;.51199;.512;.53699;.537;.56099;.561;.58499;.585;.60999;.61;.63399;.634;.65899;.659;.68299;.683;.70699;.707;.73199;.732;.75599;.756;.78099;.781;.80499;.805;.82899;.829;.85399;.854;.87799;.878;.90299;.903;.92699;.927;.95099;.951;.97599;.976;1" values="11.662,105.99;11.662,105.99;11.765,105.958;11.765,105.958;11.712,105.986;11.712,105.986;11.643,105.868;11.643,105.868;11.73,105.849;11.73,105.849;11.75,105.867;11.75,105.867;11.784,105.928;11.784,105.928;11.662,105.99;11.662,105.99;11.765,105.958;11.765,105.958;11.712,105.986;11.712,105.986;11.643,105.868;11.643,105.868;11.731,105.84;11.731,105.84;11.736,105.842;11.736,105.842;11.756,105.955;11.756,105.955;11.814,106.013;11.814,106.013;11.703,105.97;11.703,105.97;11.726,105.935;11.726,105.935;11.719,105.939;11.719,105.939;11.696,105.928;11.696,105.928;11.655,105.99;11.655,105.99;11.662,105.99;11.662,105.99" calcMode="discrete" fill="freeze"/>
        <animateTransform attributeName="transform" additive="sum" type="rotate" dur="1.708s" keyTimes="0;.51199;.512;.53699;.537;.56099;.561;.58499;.585;.60999;.61;.63399;.634;.65899;.659;.68299;.683;.70699;.707;.73199;.732;.75599;.756;.78099;.781;.80499;.805;.82899;.829;.85399;.854;.87799;.878;.90299;.903;.92699;.927;.95099;.951;.97599;.976;1" values="-6.221,0,0;-6.221,0,0;-3.78,0,0;-3.78,0,0;3.053,0,0;3.053,0,0;14.998,0,0;14.998,0,0;13.553,0,0;13.553,0,0;9.553,0,0;9.553,0,0;3.015,0,0;3.015,0,0;-6.221,0,0;-6.221,0,0;-3.78,0,0;-3.78,0,0;3.053,0,0;3.053,0,0;14.998,0,0;14.998,0,0;10.811,0,0;10.811,0,0;7.281,0,0;7.281,0,0;4.045,0,0;4.045,0,0;1.293,0,0;1.293,0,0;-.79,0,0;-.79,0,0;-2.768,0,0;-2.768,0,0;-4.266,0,0;-4.266,0,0;-5.282,0,0;-5.282,0,0;-6.003,0,0;-6.003,0,0;-6.221,0,0;-6.221,0,0" calcMode="discrete" fill="freeze"/>
        <animateTransform attributeName="transform" additive="sum" type="scale" dur="1.708s" keyTimes="0;.56099;.561;.58499;.585;.60999;.61;.63399;.634;.73199;.732;.80499;.805;.90299;.903;.97599;.976;1" values="1,1;1,1;1,.999;1,.999;.998,.998;.998,.998;1,.999;1,.999;1,1;1,1;1,.999;1,.999;1,1;1,1;1,.999;1,.999;1,1;1,1" calcMode="discrete" fill="freeze"/>
        <animateTransform attributeName="transform" additive="sum" type="translate" dur="1.708s" keyTimes="0;.53699;.537;.56099;.561;.58499;.585;.60999;.61;.63399;.634;.65899;.659;.70699;.707;.73199;.732;.75599;.756;.78099;.781;.80499;.805;.82899;.829;.85399;.854;.87799;.878;.90299;.903;.92699;.927;.95099;.951;.97599;.976;1" values="-11.65,-106;-11.65,-106;-11.8,-105.95;-11.8,-105.95;-11.65,-105.85;-11.65,-105.85;-11.75,-105.9;-11.75,-105.9;-11.75,-105.8;-11.75,-105.8;-11.75,-105.85;-11.75,-105.85;-11.65,-106;-11.65,-106;-11.8,-105.95;-11.8,-105.95;-11.65,-105.85;-11.65,-105.85;-11.7,-105.8;-11.7,-105.8;-11.75,-105.8;-11.75,-105.8;-11.7,-105.9;-11.7,-105.9;-11.8,-105.95;-11.8,-105.95;-11.6,-106;-11.6,-106;-11.55,-106;-11.55,-106;-11.6,-105.95;-11.6,-105.95;-11.55,-105.9;-11.55,-105.9;-11.5,-106;-11.5,-106;-11.65,-106;-11.65,-106" calcMode="discrete" fill="freeze"/>
        <path fill="#F5DCD8" stroke="none" d="M244.85 43.6L233.2 0 .05 62.3 11.7 105.9 244.85 43.6Z"/>
      </g>
    </g>
  </g>
</svg>