<?xml version="1.0" encoding="utf-8"?>
<!-- Generator: Adobe Illustrator 24.0.0, SVG Export Plug-In . SVG Version: 6.00 Build 0)  -->
<svg version="1.1" id="Layer_1" xmlns="http://www.w3.org/2000/svg" xmlns:xlink="http://www.w3.org/1999/xlink" x="0px" y="0px"
	 viewBox="0 0 200 184.9" style="enable-background:new 0 0 200 184.9;" xml:space="preserve">
<style type="text/css">
	.st0{fill:#D5B9CF;}
</style>
<path class="st0" d="M222.4,257.3V14.5L-22.4,139.7l0,117.6H222.4z"/>
</svg>
