<?xml version="1.0" encoding="utf-8"?>
<!-- Generator: Adobe Illustrator 22.1.0, SVG Export Plug-In . SVG Version: 6.00 Build 0)  -->
<svg version="1.1" id="Layer_1" xmlns="http://www.w3.org/2000/svg" xmlns:xlink="http://www.w3.org/1999/xlink" x="0px" y="0px"
	 viewBox="0 0 1380.4 1891.6" style="enable-background:new 0 0 1380.4 1891.6;" xml:space="preserve">
<style type="text/css">
	.st0{fill:#0B3D60;}
	.st1{fill:#EE5B56;}
	.st2{fill:#D5B9CF;}
	.st3{fill:#F6DDD9;}
</style>
<title>Asset 1</title>
<g id="Layer_2_1_">
	<g id="contenido">
		<polygon class="st0" points="1411.5,1397 1411.5,908.7 447.4,1397 		"/>
		<polygon class="st1" points="624.6,975.5 624.6,1294.1 1374.7,1673.9 1374.6,1359 		"/>
		<polygon class="st2" points="2202.5,-416.8 2202.5,518.8 0,1634.1 0.2,709.4 		"/>
		<polygon class="st3" points="2202.5,-1344.3 2202.5,-185.1 0,930.1 0.2,-218.1 		"/>
	</g>
</g>
</svg>
