<?xml version="1.0" standalone="no"?>
<!DOCTYPE svg PUBLIC "-//W3C//DTD SVG 1.1//EN" "http://www.w3.org/Graphics/SVG/1.1/DTD/svg11.dtd">
<svg xmlns="http://www.w3.org/2000/svg">
<metadata>Generated by Fontastic.me</metadata>
<defs>
<font id="t2m" horiz-adv-x="512">
<font-face font-family="t2m" units-per-em="512" ascent="480" descent="-32"/>
<missing-glyph horiz-adv-x="512" />

<glyph glyph-name="arrow-down" unicode="&#97;" d="M252 124l-252 251 30 30 222-217 217 217 30-30z"/>
<glyph glyph-name="arrow-left" unicode="&#98;" d="M348 503l18-16-189-231 189-231-18-16-202 247z"/>
<glyph glyph-name="arrow-right" unicode="&#99;" d="M165 9l-19 16 189 231-189 231 19 16 201-247z"/>
</font></defs></svg>
