<?xml version="1.0" encoding="utf-8"?>
<svg id="banners_bolsa_dinero_SVG" image-rendering="auto" baseProfile="basic" version="1.1" x="0px" y="0px" viewBox="0 0 327 352" xmlns="http://www.w3.org/2000/svg" xmlns:xlink="http://www.w3.org/1999/xlink">
  <defs>
    <g id="ala-movimiento" overflow="visible">
      <g id="ala" transform="matrix(.62 -.784 .784 .62 -55.1 58.45)">
        <animateTransform attributeName="transform" additive="replace" type="translate" repeatCount="indefinite" dur="3.958s" keyTimes="0;.01099;.011;.02099;.021;.03199;.032;.04199;.042;.05299;.053;.06299;.063;.07399;.074;.08399;.084;.09499;.095;.10499;.105;.11599;.116;.12599;.126;.13699;.137;.14699;.147;.15799;.158;.16799;.168;.17899;.179;.18899;.189;.19999;.2;.21099;.211;.22099;.221;.23199;.232;.24199;.242;.25299;.253;.26299;.263;.27399;.274;.28399;.284;.29499;.295;.30499;.305;.31599;.316;.32599;.326;.33699;.337;.34699;.347;.35799;.358;.36799;.368;.37899;.379;.38999;.39;.39999;.4;.41099;.411;.42099;.421;.43199;.432;.44199;.442;.45299;.453;.46299;.463;.47399;.474;.48399;.484;.49499;.495;.50499;.505;.51599;.516;.52599;.526;.53699;.537;.54699;.547;.55799;.558;.56799;.568;.57899;.579;.58999;.59;.59999;.6;.61099;.611;.62099;.621;.63199;.632;.64199;.642;.65299;.653;.66299;.663;.67399;.674;.68399;.684;.69499;.695;.70499;.705;.71599;.716;.72599;.726;.73699;.737;.74699;.747;.75799;.758;.76799;.768;.77899;.779;.78999;.79;.79999;.8;.81099;.811;.82099;.821;.83199;.832;.84199;.842;.85299;.853;.86299;.863;.87399;.874;.88399;.884;.89499;.895;.90499;.905;.91599;.916;.92599;.926;.93699;.937;.94699;.947;.95799;.958;.96899;.969;.97899;.979;.98999;.99;1" values="30.087,83.133;30.087,83.133;30.088,83.231;30.088,83.231;30.094,83.171;30.094,83.171;30.062,83.194;30.062,83.194;30.139,83.257;30.139,83.257;30.06,83.253;30.06,83.253;30.033,83.197;30.033,83.197;30.014,83.177;30.014,83.177;30.099,83.234;30.099,83.234;30.023,83.199;30.023,83.199;30.018,83.192;30.018,83.192;30.045,83.165;30.045,83.165;30.013,83.176;30.013,83.176;30.045,83.161;30.045,83.161;30.06,83.171;30.06,83.171;30.037,83.181;30.037,83.181;30.024,83.179;30.024,83.179;30.006,83.208;30.006,83.208;30.099,83.138;30.099,83.138;30.043,83.062;30.043,83.062;30.061,83.067;30.061,83.067;30.125,83.09;30.125,83.09;30.119,82.993;30.119,82.993;30.185,83.086;30.185,83.086;30.195,83.098;30.195,83.098;30.146,83.191;30.146,83.191;30.084,83.166;30.084,83.166;30.179,83.227;30.179,83.227;30.176,83.143;30.176,83.143;30.207,83.18;30.207,83.18;30.174,83.246;30.174,83.246;30.17,83.189;30.17,83.189;30.233,83.189;30.233,83.189;30.196,83.135;30.196,83.135;30.184,83.28;30.184,83.28;30.183,83.249;30.183,83.249;30.189,83.177;30.189,83.177;30.208,83.246;30.208,83.246;30.181,83.22;30.181,83.22;30.18,83.195;30.18,83.195;30.105,83.212;30.105,83.212;30.197,83.15;30.197,83.15;30.202,83.199;30.202,83.199;30.222,83.127;30.222,83.127;30.123,83.126;30.123,83.126;30.134,83.169;30.134,83.169;30.087,83.133;30.087,83.133;30.158,83.191;30.158,83.191;30.16,83.15;30.16,83.15;30.153,83.166;30.153,83.166;30.154,83.179;30.154,83.179;30.116,83.161;30.116,83.161;30.006,83.289;30.006,83.289;30.008,83.233;30.008,83.233;30.067,83.107;30.067,83.107;30.034,83.104;30.034,83.104;30,83.176;30,83.176;30.03,83.177;30.03,83.177;30.091,83.154;30.091,83.154;30.004,83.176;30.004,83.176;30.048,83.09;30.048,83.09;30.098,83.152;30.098,83.152;29.995,83.107;29.995,83.107;30.003,83.121;30.003,83.121;30.05,83.042;30.05,83.042;30.044,83.109;30.044,83.109;30.14,83.133;30.14,83.133;30.001,83.063;30.001,83.063;30.124,83.092;30.124,83.092;30.119,82.993;30.119,82.993;30.217,83.211;30.217,83.211;30.216,83.194;30.216,83.194;30.177,83.1;30.177,83.1;30.046,83.187;30.046,83.187;29.991,83.145;29.991,83.145;30.119,82.993;30.119,82.993;30.217,83.211;30.217,83.211;30.216,83.194;30.216,83.194;30.177,83.1;30.177,83.1;30.046,83.187;30.046,83.187;29.991,83.145;29.991,83.145;30.119,82.993;30.119,82.993;30.097,83.206;30.097,83.206;30.132,83.176;30.132,83.176;30.17,83.151;30.17,83.151;30.209,83.214;30.209,83.214;30.2,83.257;30.2,83.257;30.18,83.183;30.18,83.183;30.174,83.176;30.174,83.176;30.241,83.225;30.241,83.225;30.124,83.125;30.124,83.125;30.209,83.216;30.209,83.216;30.139,83.209;30.139,83.209;30.201,83.147;30.201,83.147;30.087,83.133;30.087,83.133" calcMode="discrete"/>
        <animateTransform attributeName="transform" additive="sum" type="rotate" repeatCount="indefinite" dur="3.958s" keyTimes="0;.01099;.011;.02099;.021;.03199;.032;.04199;.042;.05299;.053;.06299;.063;.07399;.074;.08399;.084;.09499;.095;.10499;.105;.11599;.116;.12599;.126;.13699;.137;.14699;.147;.15799;.158;.16799;.168;.17899;.179;.18899;.189;.19999;.2;.21099;.211;.22099;.221;.23199;.232;.24199;.242;.25299;.253;.26299;.263;.27399;.274;.28399;.284;.29499;.295;.30499;.305;.31599;.316;.32599;.326;.33699;.337;.34699;.347;.35799;.358;.36799;.368;.37899;.379;.38999;.39;.39999;.4;.41099;.411;.42099;.421;.43199;.432;.44199;.442;.45299;.453;.46299;.463;.47399;.474;.48399;.484;.49499;.495;.50499;.505;.51599;.516;.52599;.526;.53699;.537;.54699;.547;.55799;.558;.56799;.568;.57899;.579;.58999;.59;.59999;.6;.61099;.611;.62099;.621;.63199;.632;.64199;.642;.65299;.653;.66299;.663;.67399;.674;.68399;.684;.69499;.695;.70499;.705;.71599;.716;.72599;.726;.73699;.737;.74699;.747;.75799;.758;.76799;.768;.77899;.779;.78999;.79;.79999;.8;.81099;.811;.82099;.821;.83199;.832;.84199;.842;.85299;.853;.86299;.863;.87399;.874;.88399;.884;.89499;.895;.90499;.905;.91599;.916;.92599;.926;.93699;.937;.94699;.947;.95799;.958;.96899;.969;.97899;.979;.98999;.99;1" values="-51.674,0,0;-51.674,0,0;-46.64,0,0;-46.64,0,0;-41.867,0,0;-41.867,0,0;-37.342,0,0;-37.342,0,0;-33.064,0,0;-33.064,0,0;-28.844,0,0;-28.844,0,0;-25.06,0,0;-25.06,0,0;-21.335,0,0;-21.335,0,0;-18.047,0,0;-18.047,0,0;-14.816,0,0;-14.816,0,0;-12.021,0,0;-12.021,0,0;-9.286,0,0;-9.286,0,0;-6.796,0,0;-6.796,0,0;-4.553,0,0;-4.553,0,0;-2.558,0,0;-2.558,0,0;-.808,0,0;-.808,0,0;.507,0,0;.507,0,0;1.765,0,0;1.765,0,0;2.778,0,0;2.778,0,0;3.545,0,0;3.545,0,0;4.253,0,0;4.253,0,0;4.529,0,0;4.529,0,0;4.724,0,0;4.724,0,0;2.282,0,0;2.282,0,0;.007,0,0;.007,0,0;-2.267,0,0;-2.267,0,0;-4.543,0,0;-4.543,0,0;-7.008,0,0;-7.008,0,0;-9.285,0,0;-9.285,0,0;-11.563,0,0;-11.563,0,0;-14.028,0,0;-14.028,0,0;-16.307,0,0;-16.307,0,0;-18.775,0,0;-18.775,0,0;-21.053,0,0;-21.053,0,0;-23.334,0,0;-23.334,0,0;-25.803,0,0;-25.803,0,0;-28.084,0,0;-28.084,0,0;-30.553,0,0;-30.553,0,0;-32.835,0,0;-32.835,0,0;-35.117,0,0;-35.117,0,0;-37.588,0,0;-37.588,0,0;-39.871,0,0;-39.871,0,0;-42.34,0,0;-42.34,0,0;-44.623,0,0;-44.623,0,0;-46.905,0,0;-46.905,0,0;-49.375,0,0;-49.375,0,0;-51.674,0,0;-51.674,0,0;-46.881,0,0;-46.881,0,0;-42.345,0,0;-42.345,0,0;-37.864,0,0;-37.864,0,0;-33.811,0,0;-33.811,0,0;-29.814,0,0;-29.814,0,0;-26.059,0,0;-26.059,0,0;-22.544,0,0;-22.544,0,0;-19.274,0,0;-19.274,0,0;-16.056,0,0;-16.056,0,0;-13.27,0,0;-13.27,0,0;-10.538,0,0;-10.538,0,0;-8.047,0,0;-8.047,0,0;-5.797,0,0;-5.797,0,0;-3.791,0,0;-3.791,0,0;-2.025,0,0;-2.025,0,0;-.499,0,0;-.499,0,0;.784,0,0;.784,0,0;2.015,0,0;2.015,0,0;3.006,0,0;3.006,0,0;3.753,0,0;3.753,0,0;4.263,0,0;4.263,0,0;4.531,0,0;4.531,0,0;4.724,0,0;4.724,0,0;-17.562,0,0;-17.562,0,0;-40.101,0,0;-40.101,0,0;-62.51,0,0;-62.51,0,0;-40.102,0,0;-40.102,0,0;-17.563,0,0;-17.563,0,0;4.724,0,0;4.724,0,0;-17.562,0,0;-17.562,0,0;-40.101,0,0;-40.101,0,0;-62.51,0,0;-62.51,0,0;-40.102,0,0;-40.102,0,0;-17.563,0,0;-17.563,0,0;4.724,0,0;4.724,0,0;-3.528,0,0;-3.528,0,0;-11.268,0,0;-11.268,0,0;-18.28,0,0;-18.28,0,0;-24.567,0,0;-24.567,0,0;-30.313,0,0;-30.313,0,0;-35.329,0,0;-35.329,0,0;-39.615,0,0;-39.615,0,0;-43.358,0,0;-43.358,0,0;-46.368,0,0;-46.368,0,0;-48.648,0,0;-48.648,0,0;-50.383,0,0;-50.383,0,0;-51.387,0,0;-51.387,0,0;-51.674,0,0;-51.674,0,0" calcMode="discrete"/>
        <animateTransform attributeName="transform" additive="sum" type="scale" repeatCount="indefinite" dur="3.958s" keyTimes="0;.01099;.011;.07399;.074;.10499;.105;.14699;.147;.19999;.2;.23199;.232;.27399;.274;.31599;.316;.36799;.368;.48399;.484;.49499;.495;.55799;.558;.59999;.6;.64199;.642;.70499;.705;.72599;.726;.73699;.737;.74699;.747;.75799;.758;.76799;.768;.77899;.779;.78999;.79;.79999;.8;.81099;.811;.82099;.821;.83199;.832;.84199;.842;.85299;.853;.86299;.863;.88399;.884;.89499;.895;.98999;.99;1" values=".998,.998;.998,.998;.997,.997;.997,.997;.998,.998;.998,.998;1,.999;1,.999;1,1;1,1;1,.999;1,.999;1,1;1,1;1,.999;1,.999;.998,.998;.998,.998;.997,.997;.997,.997;.998,.998;.998,.998;.997,.997;.997,.997;.998,.998;.998,.998;1,.999;1,.999;1,1;1,1;1,.999;1,.999;1,1;1,1;.998,.998;.998,.998;.997,.997;.997,.997;1,.999;1,.999;.997,.997;.997,.997;.998,.998;.998,.998;1,1;1,1;.998,.998;.998,.998;.997,.997;.997,.997;1,.999;1,.999;.997,.997;.997,.997;.998,.998;.998,.998;1,1;1,1;1,.999;1,.999;.998,.998;.998,.998;.997,.997;.997,.997;.998,.998;.998,.998" calcMode="discrete"/>
        <animateTransform attributeName="transform" additive="sum" type="translate" repeatCount="indefinite" dur="3.958s" keyTimes="0;.01099;.011;.03199;.032;.04199;.042;.05299;.053;.06299;.063;.07399;.074;.08399;.084;.09499;.095;.10499;.105;.11599;.116;.13699;.137;.14699;.147;.16799;.168;.17899;.179;.18899;.189;.19999;.2;.21099;.211;.22099;.221;.23199;.232;.24199;.242;.25299;.253;.26299;.263;.27399;.274;.28399;.284;.29499;.295;.30499;.305;.31599;.316;.32599;.326;.33699;.337;.34699;.347;.36799;.368;.37899;.379;.38999;.39;.39999;.4;.41099;.411;.42099;.421;.43199;.432;.44199;.442;.45299;.453;.46299;.463;.47399;.474;.48399;.484;.49499;.495;.51599;.516;.52599;.526;.53699;.537;.54699;.547;.55799;.558;.56799;.568;.57899;.579;.58999;.59;.59999;.6;.61099;.611;.62099;.621;.63199;.632;.64199;.642;.65299;.653;.66299;.663;.67399;.674;.68399;.684;.69499;.695;.70499;.705;.71599;.716;.72599;.726;.73699;.737;.74699;.747;.75799;.758;.77899;.779;.78999;.79;.79999;.8;.81099;.811;.82099;.821;.84199;.842;.85299;.853;.86299;.863;.87399;.874;.88399;.884;.89499;.895;.90499;.905;.91599;.916;.92599;.926;.94699;.947;.95799;.958;.96899;.969;.97899;.979;.98999;.99;1" values="-33.45,-82.15;-33.45,-82.15;-33.4,-82.1;-33.4,-82.1;-33.35,-82.1;-33.35,-82.1;-33.4,-82.15;-33.4,-82.15;-33.4,-82.25;-33.4,-82.25;-33.45,-82.2;-33.45,-82.2;-33.35,-82.15;-33.35,-82.15;-33.4,-82.25;-33.4,-82.25;-33.35,-82.2;-33.35,-82.2;-33.4,-82.25;-33.4,-82.25;-33.4,-82.2;-33.4,-82.2;-33.45,-82.25;-33.45,-82.25;-33.5,-82.2;-33.5,-82.2;-33.4,-82.2;-33.4,-82.2;-33.4,-82.25;-33.4,-82.25;-33.65,-82.1;-33.65,-82.1;-33.6,-82.1;-33.6,-82.1;-33.6,-82;-33.6,-82;-33.7,-82.1;-33.7,-82.1;-33.7,-82;-33.7,-82;-33.65,-81.9;-33.65,-81.9;-33.55,-82.05;-33.55,-82.05;-33.55,-82.15;-33.55,-82.15;-33.45,-82.15;-33.45,-82.15;-33.55,-82.15;-33.55,-82.15;-33.55,-82.1;-33.55,-82.1;-33.6,-82.1;-33.6,-82.1;-33.6,-82.2;-33.6,-82.2;-33.5,-82.1;-33.5,-82.1;-33.55,-82.15;-33.55,-82.15;-33.55,-82.1;-33.55,-82.1;-33.55,-82.15;-33.55,-82.15;-33.5,-82.1;-33.5,-82.1;-33.5,-82.15;-33.5,-82.15;-33.5,-82.1;-33.5,-82.1;-33.55,-82.05;-33.55,-82.05;-33.45,-82.05;-33.45,-82.05;-33.6,-82.1;-33.6,-82.1;-33.55,-82.05;-33.55,-82.05;-33.6,-82.05;-33.6,-82.05;-33.5,-82;-33.5,-82;-33.5,-81.95;-33.5,-81.95;-33.45,-82.15;-33.45,-82.15;-33.45,-82.1;-33.45,-82.1;-33.5,-82.15;-33.5,-82.15;-33.45,-82.1;-33.45,-82.1;-33.4,-82.15;-33.4,-82.15;-33.35,-82.25;-33.35,-82.25;-33.35,-82.2;-33.35,-82.2;-33.45,-82.15;-33.45,-82.15;-33.4,-82.15;-33.4,-82.15;-33.4,-82.25;-33.4,-82.25;-33.4,-82.2;-33.4,-82.2;-33.45,-82.2;-33.45,-82.2;-33.35,-82.2;-33.35,-82.2;-33.4,-82.15;-33.4,-82.15;-33.5,-82.2;-33.5,-82.2;-33.45,-82.2;-33.45,-82.2;-33.4,-82.2;-33.4,-82.2;-33.4,-82;-33.4,-82;-33.55,-82.05;-33.55,-82.05;-33.65,-82.1;-33.65,-82.1;-33.55,-82.1;-33.55,-82.1;-33.7,-82.1;-33.7,-82.1;-33.7,-82;-33.7,-82;-33.5,-82.1;-33.5,-82.1;-33.5,-82.05;-33.5,-82.05;-33.45,-82;-33.45,-82;-33.4,-82;-33.4,-82;-33.7,-82;-33.7,-82;-33.5,-82.1;-33.5,-82.1;-33.5,-82.05;-33.5,-82.05;-33.45,-82;-33.45,-82;-33.4,-82;-33.4,-82;-33.7,-82;-33.7,-82;-33.5,-82.2;-33.5,-82.2;-33.5,-82.15;-33.5,-82.15;-33.55,-82.05;-33.55,-82.05;-33.6,-82.1;-33.6,-82.1;-33.5,-82.1;-33.5,-82.1;-33.55,-82.05;-33.55,-82.05;-33.55,-82.1;-33.55,-82.1;-33.55,-82;-33.55,-82;-33.55,-82.1;-33.55,-82.1;-33.5,-82.05;-33.5,-82.05;-33.5,-82;-33.5,-82;-33.45,-82.15;-33.45,-82.15" calcMode="discrete"/>
        <path fill="#D5B9CF" stroke="none" d="M36.45 6.6Q35.55 3.2 33.1 1.35 30.6 -.55 27.75 .2 22.4 1.6 20 7 17.7 12.25 19.3 18.4 19.95 21.3 23.5 31 22.4 31.85 19.85 27.95 17.35 24.1 16.9 21.25 12.2 23.6 9.95 28.4 7.7 33.25 9.05 38.45 9.95 41.6 12.55 47.5 11.35 48.55 9.35 45.85 7.7 43.6 6.8 40.9 2.75 43.5 1.05 47.85 -.75 52.3 .5 57.05L5.55 76.45Q8.05 86 16.55 90.95 25.05 95.95 34.55 93.45 44.05 91 49.05 82.5 54.05 74 51.55 64.45L36.45 6.6Z"/>
      </g>
    </g>
  </defs>
  <g id="Escena-1" overflow="visible">
    <g id="todo" transform="matrix(1.25 0 0 1.25 46.7 -2.9)">
      <g id="sombra" transform="translate(.2 250.1)">
        <animateTransform attributeName="transform" additive="replace" type="translate" repeatCount="indefinite" dur="3.958s" keyTimes="0;.01099;.011;.02099;.021;.03199;.032;.04199;.042;.05299;.053;.06299;.063;.07399;.074;.08399;.084;.09499;.095;.10499;.105;.11599;.116;.12599;.126;.13699;.137;.14699;.147;.15799;.158;.16799;.168;.17899;.179;.18899;.189;.19999;.2;.21099;.211;.22099;.221;.23199;.232;.24199;.242;.25299;.253;.26299;.263;.27399;.274;.28399;.284;.29499;.295;.30499;.305;.31599;.316;.32599;.326;.33699;.337;.34699;.347;.35799;.358;.36799;.368;.37899;.379;.38999;.39;.39999;.4;.41099;.411;.42099;.421;.43199;.432;.44199;.442;.45299;.453;.46299;.463;.47399;.474;.48399;.484;.49499;.495;.50499;.505;.51599;.516;.52599;.526;.53699;.537;.54699;.547;.55799;.558;.56799;.568;.57899;.579;.58999;.59;.59999;.6;.61099;.611;.62099;.621;.63199;.632;.64199;.642;.65299;.653;.66299;.663;.67399;.674;.68399;.684;.69499;.695;.70499;.705;.71599;.716;.72599;.726;.73699;.737;.74699;.747;.75799;.758;.76799;.768;.77899;.779;.78999;.79;.79999;.8;.81099;.811;.82099;.821;.83199;.832;.84199;.842;.85299;.853;.86299;.863;.87399;.874;.88399;.884;.89499;.895;.90499;.905;.91599;.916;.92599;.926;.93699;.937;1" values="46.3,263;46.3,263;46.33,263.093;46.33,263.093;46.256,263.036;46.256,263.036;46.331,263.027;46.331,263.027;46.3,263.067;46.3,263.067;46.368,263.057;46.368,263.057;46.327,263.045;46.327,263.045;46.285,263.082;46.285,263.082;46.288,263.015;46.288,263.015;46.288,263.052;46.288,263.052;46.284,263.036;46.284,263.036;46.325,263.068;46.325,263.068;46.314,263.104;46.314,263.104;46.297,262.975;46.297,262.975;46.277,263.004;46.277,263.004;46.358,263.087;46.358,263.087;46.276,263.064;46.276,263.064;46.349,263.034;46.349,263.034;46.308,263.064;46.308,263.064;46.268,263.032;46.268,263.032;46.275,263.06;46.275,263.06;46.277,263.082;46.277,263.082;46.275,263.052;46.275,263.052;46.326,263.021;46.326,263.021;46.26,263.089;46.26,263.089;46.246,263.113;46.246,263.113;46.288,263.014;46.288,263.014;46.209,263.028;46.209,263.028;46.292,263.05;46.292,263.05;46.205,263.003;46.205,263.003;46.28,263.015;46.28,263.015;46.293,263.084;46.293,263.084;46.253,263.033;46.253,263.033;46.258,263.041;46.258,263.041;46.2,263.048;46.2,263.048;46.197,263.063;46.197,263.063;46.19,263.068;46.19,263.068;46.289,263.071;46.289,263.071;46.275,263.013;46.275,263.013;46.257,263.014;46.257,263.014;46.223,263.014;46.223,263.014;46.197,263.013;46.197,263.013;46.278,263.072;46.278,263.072;46.243,263.13;46.243,263.13;46.256,263.065;46.256,263.065;46.201,263.059;46.201,263.059;46.267,263.04;46.267,263.04;46.267,263.095;46.267,263.095;46.263,263.086;46.263,263.086;46.243,263.076;46.243,263.076;46.23,263.065;46.23,263.065;46.264,263.04;46.264,263.04;46.246,263.09;46.246,263.09;46.221,263.012;46.221,263.012;46.243,262.997;46.243,262.997;46.262,263.094;46.262,263.094;46.226,263.076;46.226,263.076;46.173,263.057;46.173,263.057;46.307,263.087;46.307,263.087;46.246,263.002;46.246,263.002;46.245,263.094;46.245,263.094;46.175,263.071;46.175,263.071;46.23,263.097;46.23,263.097;46.216,263.071;46.216,263.071;46.248,263.044;46.248,263.044;46.228,263.002;46.228,263.002;46.253,263.088;46.253,263.088;46.16,263.108;46.16,263.108;46.241,263.077;46.241,263.077;46.254,263.03;46.254,263.03;46.242,263.106;46.242,263.106;46.251,263.021;46.251,263.021;46.262,263.014;46.262,263.014;46.22,263.073;46.22,263.073;46.251,263.047;46.251,263.047;46.227,263.095;46.227,263.095;46.307,263.099;46.307,263.099;46.236,263.118;46.236,263.118;46.281,263.047;46.281,263.047;46.274,263.053;46.274,263.053;46.272,263.068;46.272,263.068;46.323,263.046;46.323,263.046;46.28,263.043;46.28,263.043;46.289,263.109;46.289,263.109;46.255,263.034;46.255,263.034;46.276,263.076;46.276,263.076;46.249,263.084;46.249,263.084;46.329,263.057;46.329,263.057;46.362,263.096;46.362,263.096;46.3,263;46.3,263" calcMode="discrete"/>
        <animateTransform attributeName="transform" additive="sum" type="scale" repeatCount="indefinite" dur="3.958s" keyTimes="0;.01099;.011;.02099;.021;.03199;.032;.04199;.042;.05299;.053;.06299;.063;.07399;.074;.08399;.084;.09499;.095;.10499;.105;.11599;.116;.12599;.126;.13699;.137;.14699;.147;.15799;.158;.16799;.168;.17899;.179;.18899;.189;.19999;.2;.21099;.211;.22099;.221;.23199;.232;.24199;.242;.25299;.253;.26299;.263;.27399;.274;.28399;.284;.29499;.295;.30499;.305;.31599;.316;.32599;.326;.33699;.337;.34699;.347;.35799;.358;.36799;.368;.37899;.379;.38999;.39;.39999;.4;.41099;.411;.42099;.421;.43199;.432;.44199;.442;.45299;.453;.46299;.463;.47399;.474;.48399;.484;.49499;.495;.50499;.505;.51599;.516;.52599;.526;.53699;.537;.54699;.547;.55799;.558;.56799;.568;.57899;.579;.58999;.59;.59999;.6;.61099;.611;.62099;.621;.63199;.632;.64199;.642;.65299;.653;.66299;.663;.67399;.674;.68399;.684;.69499;.695;.70499;.705;.71599;.716;.72599;.726;.73699;.737;.74699;.747;.75799;.758;.76799;.768;.77899;.779;.78999;.79;.79999;.8;.81099;.811;.82099;.821;.83199;.832;.84199;.842;.85299;.853;.86299;.863;.87399;.874;.88399;.884;.89499;.895;.90499;.905;.91599;.916;.92599;.926;.93699;.937;1" values="1,1;1,1;1.007,1.007;1.007,1.007;1.014,1.014;1.014,1.014;1.021,1.021;1.021,1.021;1.028,1.028;1.028,1.028;1.035,1.035;1.035,1.035;1.042,1.042;1.042,1.042;1.049,1.049;1.049,1.049;1.055,1.055;1.055,1.055;1.062,1.062;1.062,1.062;1.068,1.068;1.068,1.068;1.074,1.074;1.074,1.074;1.081,1.081;1.081,1.081;1.087,1.087;1.087,1.087;1.093,1.093;1.093,1.093;1.099,1.099;1.099,1.099;1.105,1.105;1.105,1.105;1.111,1.111;1.111,1.111;1.116,1.116;1.116,1.116;1.122,1.122;1.122,1.122;1.128,1.128;1.128,1.128;1.133,1.133;1.133,1.133;1.139,1.139;1.139,1.139;1.144,1.144;1.144,1.144;1.149,1.149;1.149,1.149;1.154,1.154;1.154,1.154;1.159,1.159;1.159,1.159;1.164,1.164;1.164,1.164;1.169,1.169;1.169,1.169;1.174,1.174;1.174,1.174;1.179,1.179;1.179,1.179;1.183,1.183;1.183,1.183;1.188,1.188;1.188,1.188;1.192,1.192;1.192,1.192;1.197,1.197;1.197,1.197;1.201,1.201;1.201,1.201;1.205,1.205;1.205,1.205;1.209,1.209;1.209,1.209;1.213,1.213;1.213,1.213;1.217,1.217;1.217,1.217;1.221,1.221;1.221,1.221;1.225,1.225;1.225,1.225;1.229,1.229;1.229,1.229;1.232,1.232;1.232,1.232;1.236,1.236;1.236,1.236;1.239,1.239;1.239,1.239;1.243,1.243;1.243,1.243;1.246,1.246;1.246,1.246;1.249,1.249;1.249,1.249;1.252,1.252;1.252,1.252;1.255,1.255;1.255,1.255;1.258,1.258;1.258,1.258;1.261,1.261;1.261,1.261;1.264,1.264;1.264,1.264;1.266,1.266;1.266,1.266;1.269,1.269;1.269,1.269;1.271,1.271;1.271,1.271;1.274,1.274;1.274,1.274;1.276,1.276;1.276,1.276;1.278,1.278;1.278,1.278;1.28,1.28;1.28,1.28;1.282,1.282;1.282,1.282;1.284,1.284;1.284,1.284;1.286,1.286;1.286,1.286;1.288,1.288;1.288,1.288;1.29,1.29;1.29,1.29;1.291,1.291;1.291,1.291;1.293,1.293;1.293,1.293;1.294,1.294;1.294,1.294;1.296,1.296;1.296,1.296;1.27,1.27;1.27,1.27;1.245,1.245;1.245,1.245;1.221,1.221;1.221,1.221;1.199,1.199;1.199,1.199;1.177,1.177;1.177,1.177;1.157,1.157;1.157,1.157;1.138,1.138;1.138,1.138;1.121,1.121;1.121,1.121;1.104,1.104;1.104,1.104;1.089,1.089;1.089,1.089;1.074,1.074;1.074,1.074;1.061,1.061;1.061,1.061;1.05,1.05;1.05,1.05;1.039,1.039;1.039,1.039;1.03,1.03;1.03,1.03;1.021,1.021;1.021,1.021;1.014,1.014;1.014,1.014;1.008,1.008;1.008,1.008;1.004,1.004;1.004,1.004;1,1;1,1" calcMode="discrete"/>
        <animateTransform attributeName="transform" additive="sum" type="translate" repeatCount="indefinite" dur="3.958s" keyTimes="0;.01099;.011;.02099;.021;.03199;.032;.05299;.053;.06299;.063;.08399;.084;.09499;.095;.12599;.126;.13699;.137;.15799;.158;.16799;.168;.17899;.179;.18899;.189;.19999;.2;.21099;.211;.24199;.242;.25299;.253;.26299;.263;.27399;.274;.28399;.284;.29499;.295;.30499;.305;.31599;.316;.32599;.326;.33699;.337;.35799;.358;.36799;.368;.38999;.39;.39999;.4;.42099;.421;.44199;.442;.45299;.453;.46299;.463;.47399;.474;.48399;.484;.49499;.495;.51599;.516;.53699;.537;.54699;.547;.55799;.558;.57899;.579;.59999;.6;.61099;.611;.62099;.621;.63199;.632;.64199;.642;.65299;.653;.68399;.684;.69499;.695;.70499;.705;.71599;.716;.72599;.726;.73699;.737;.74699;.747;.76799;.768;.77899;.779;.78999;.79;.81099;.811;.82099;.821;.83199;.832;.85299;.853;.87399;.874;.88399;.884;.89499;.895;.90499;.905;.91599;.916;.92599;.926;.93699;.937;1" values="-46.1,-12.9;-46.1,-12.9;-46,-13;-46,-13;-45.95,-13;-45.95,-13;-46,-13;-46,-13;-46.05,-13;-46.05,-13;-46,-13;-46,-13;-46,-12.95;-46,-12.95;-46,-13;-46,-13;-46,-13.05;-46,-13.05;-46,-12.95;-46,-12.95;-46.05,-13;-46.05,-13;-46,-13;-46,-13;-46.05,-12.95;-46.05,-12.95;-46,-13;-46,-13;-46,-12.95;-46,-12.95;-46,-13;-46,-13;-46.05,-13;-46.05,-13;-46,-13;-46,-13;-46,-13.05;-46,-13.05;-46.05,-12.95;-46.05,-12.95;-46,-12.95;-46,-12.95;-46.05,-13;-46.05,-13;-46,-12.95;-46,-12.95;-46.05,-12.95;-46.05,-12.95;-46.05,-13;-46.05,-13;-46.05,-12.95;-46.05,-12.95;-46,-12.95;-46,-12.95;-46,-13;-46,-13;-46.05,-13;-46.05,-13;-46.05,-12.95;-46.05,-12.95;-46,-12.95;-46,-12.95;-46.05,-13;-46.05,-13;-46.05,-13.05;-46.05,-13.05;-46.05,-13;-46.05,-13;-46,-13;-46,-13;-46.05,-12.95;-46.05,-12.95;-46.05,-13;-46.05,-13;-46,-13;-46,-13;-46,-12.95;-46,-12.95;-46,-13;-46,-13;-46,-12.95;-46,-12.95;-46,-13;-46,-13;-45.95,-13;-45.95,-13;-46.05,-13;-46.05,-13;-46,-12.95;-46,-12.95;-46,-13;-46,-13;-45.95,-13;-45.95,-13;-46,-13;-46,-13;-46,-12.95;-46,-12.95;-46,-13;-46,-13;-45.95,-13;-45.95,-13;-46,-13;-46,-13;-46,-12.95;-46,-12.95;-45.95,-13;-45.95,-13;-45.95,-12.95;-45.95,-12.95;-45.9,-12.95;-45.9,-12.95;-45.95,-12.95;-45.95,-12.95;-45.95,-13;-45.95,-13;-45.9,-13;-45.9,-13;-45.95,-12.95;-45.95,-12.95;-45.95,-13;-45.95,-13;-45.95,-12.95;-45.95,-12.95;-45.9,-13.05;-45.9,-13.05;-45.9,-13;-45.9,-13;-45.95,-13;-45.95,-13;-45.9,-13;-45.9,-13;-45.95,-12.95;-45.95,-12.95;-46.15,-13.05;-46.15,-13.05;-46.1,-12.9;-46.1,-12.9" calcMode="discrete"/>
        <path fill="#FFFFFF" stroke="none" d="M46.15 25.8Q65.25 25.8 78.75 22.05 92.25 18.25 92.25 12.9 92.25 7.55 78.75 3.8 65.2 0 46.15 0 27.05 0 13.5 3.8 0 7.55 0 12.9 0 18.25 13.5 22.05 27 25.8 46.15 25.8Z"/>
      </g>
      <g id="bolsa">
        <animateTransform attributeName="transform" additive="replace" type="translate" repeatCount="indefinite" dur="3.958s" keyTimes="0;.01099;.011;.02099;.021;.03199;.032;.04199;.042;.05299;.053;.06299;.063;.07399;.074;.08399;.084;.09499;.095;.10499;.105;.11599;.116;.12599;.126;.13699;.137;.14699;.147;.15799;.158;.16799;.168;.17899;.179;.18899;.189;.19999;.2;.21099;.211;.22099;.221;.23199;.232;.24199;.242;.25299;.253;.26299;.263;.27399;.274;.28399;.284;.29499;.295;.30499;.305;.31599;.316;.32599;.326;.33699;.337;.34699;.347;.35799;.358;.36799;.368;.37899;.379;.38999;.39;.39999;.4;.41099;.411;.42099;.421;.43199;.432;.44199;.442;.45299;.453;.46299;.463;.47399;.474;.48399;.484;.49499;.495;.50499;.505;.51599;.516;.52599;.526;.53699;.537;.54699;.547;.55799;.558;.56799;.568;.57899;.579;.58999;.59;.59999;.6;.61099;.611;.62099;.621;.63199;.632;.64199;.642;.65299;.653;.66299;.663;.67399;.674;.68399;.684;.69499;.695;.70499;.705;.71599;.716;.72599;.726;.73699;.737;.74699;.747;.75799;.758;.76799;.768;.77899;.779;.78999;.79;.79999;.8;.81099;.811;.82099;.821;.83199;.832;.84199;.842;.85299;.853;.86299;.863;.87399;.874;.88399;.884;.89499;.895;.90499;.905;.91599;.916;.92599;.926;.93699;.937;1" values="0,0;0,0;0,.5;0,.5;0,.95;0,.95;0,1.4;0,1.4;0,1.85;0,1.85;0,2.3;0,2.3;0,2.75;0,2.75;0,3.2;0,3.2;0,3.65;0,3.65;0,4.05;0,4.05;0,4.5;0,4.5;0,4.9;0,4.9;0,5.3;0,5.3;0,5.75;0,5.75;0,6.15;0,6.15;0,6.55;0,6.55;0,6.9;0,6.9;0,7.3;0,7.3;0,7.7;0,7.7;0,8.05;0,8.05;0,8.4;0,8.4;0,8.8;0,8.8;0,9.15;0,9.15;0,9.5;0,9.5;0,9.85;0,9.85;0,10.15;0,10.15;0,10.5;0,10.5;0,10.85;0,10.85;0,11.15;0,11.15;0,11.45;0,11.45;0,11.8;0,11.8;0,12.1;0,12.1;0,12.4;0,12.4;0,12.7;0,12.7;0,12.95;0,12.95;0,13.25;0,13.25;0,13.55;0,13.55;0,13.8;0,13.8;0,14.05;0,14.05;0,14.35;0,14.35;0,14.6;0,14.6;0,14.85;0,14.85;0,15.05;0,15.05;0,15.3;0,15.3;0,15.55;0,15.55;0,15.75;0,15.75;0,16;0,16;0,16.2;0,16.2;0,16.4;0,16.4;0,16.6;0,16.6;0,16.8;0,16.8;0,17;0,17;0,17.2;0,17.2;0,17.35;0,17.35;0,17.55;0,17.55;0,17.7;0,17.7;0,17.9;0,17.9;0,18.05;0,18.05;0,18.2;0,18.2;0,18.35;0,18.35;0,18.5;0,18.5;0,18.6;0,18.6;0,18.75;0,18.75;0,18.85;0,18.85;0,19;0,19;0,19.1;0,19.1;0,19.2;0,19.2;0,19.3;0,19.3;0,19.4;0,19.4;0,19.5;0,19.5;0,17.8;0,17.8;0,16.15;0,16.15;0,14.6;0,14.6;0,13.1;0,13.1;0,11.7;0,11.7;0,10.35;0,10.35;0,9.15;0,9.15;0,7.95;0,7.95;0,6.85;0,6.85;0,5.85;0,5.85;0,4.9;0,4.9;0,4.05;0,4.05;0,3.3;0,3.3;0,2.55;0,2.55;0,1.95;0,1.95;0,1.4;0,1.4;0,.95;0,.95;0,.55;0,.55;0,.25;0,.25;0,0;0,0" calcMode="discrete"/>
        <use xlink:href="#ala-movimiento" transform="translate(9.8 0)"/>
        <use xlink:href="#ala-movimiento" transform="matrix(-.459 -.889 -.889 .459 230 129.1)"/>
        <path fill="#163C60" stroke="none" d="M171.45 48.15Q170.05 43.75 165.55 41.35 160.55 38.65 153.95 39.85 154.1 36.1 151.8 31.6 148.8 25.85 143.05 22.55 137.3 19.2 130.8 19.5 125.8 19.75 122.6 21.75 120.35 15.4 115.55 12.4 111.15 9.7 106.65 10.7 101.5 11.85 99.25 17 97.2 21.65 98 28.2 98.7 34.15 101.85 56.9 75.55 65.75 69.55 67.95 57.1 72.55 47.8 77.05 21.2 90.05 11.25 107.3 -.45 127.45 .15 144.4 .75 161.25 13.2 168.4L47.65 188.3 47.25 188.05 81.7 207.95Q94.05 215.15 108.95 207.25 123.9 199.3 135.6 179.05 145.6 161.7 143.5 132.25 142.75 121.4 140.5 108.9 136.65 88.7 134 74.1L148.3 69.05Q155.55 66.55 160.7 64.4 166.75 61.85 169.75 57.7 173 53.15 171.45 48.15Z"/>
        <path id="Layer2_0_1_STROKES" stroke="#FFF" stroke-width="2.5" stroke-linejoin="miter" stroke-linecap="round" stroke-miterlimit="10" fill="none" d="M126.25 66.55L141.05 58"/>
        <path id="Layer3_0_1_STROKES" stroke="#FFF" stroke-width="2.5" stroke-linejoin="miter" stroke-linecap="round" stroke-miterlimit="10" fill="none" d="M113.4 59.05L113.4 41.95"/>
        <path id="Layer4_0_1_STROKES" stroke="#FFF" stroke-width="2.5" stroke-linejoin="miter" stroke-linecap="round" stroke-miterlimit="10" fill="none" d="M60.35 136.45Q57.35 141.7 58.9 147.55 60.45 153.35 65.7 156.4 70.95 159.4 76.8 157.85 82.6 156.3 85.65 151.05 88.65 145.8 87.1 139.95 85.5 134.1 80.3 131.1 75.05 128.1 73.5 122.25 71.95 116.4 74.95 111.15 78 105.95 83.8 104.4 89.6 102.85 94.85 105.85 100.1 108.85 101.65 114.7 103.25 120.55 100.2 125.75"/>
        <path id="Layer5_0_1_STROKES" stroke="#FFF" stroke-width="2.5" stroke-linejoin="miter" stroke-linecap="round" stroke-miterlimit="10" fill="none" d="M65.7 156.4L59.35 167.35"/>
        <path id="Layer6_0_1_STROKES" stroke="#FFF" stroke-width="2.5" stroke-linejoin="miter" stroke-linecap="round" stroke-miterlimit="10" fill="none" d="M101.2 94.85L94.85 105.8"/>
        <path fill="#EE5B56" stroke="none" d="M89 45.95Q86.4 46.6 85.15 48.9L83.75 51.35Q82.4 53.65 83.1 56.2 83.8 58.8 86.05 60.1L138.85 90.6Q141.15 91.9 143.7 91.25 146.3 90.55 147.6 88.25L149 85.8Q150.35 83.5 149.65 80.95 148.95 78.35 146.65 77.05L93.85 46.55Q91.55 45.25 89 45.95Z"/>
      </g>
    </g>
  </g>
</svg>
