<?xml version="1.0" encoding="utf-8"?>
<!-- Generator: Adobe Illustrator 22.1.0, SVG Export Plug-In . SVG Version: 6.00 Build 0)  -->
<svg version="1.1" id="iconos_phone_SVG" image-rendering="auto"
	 xmlns="http://www.w3.org/2000/svg" xmlns:xlink="http://www.w3.org/1999/xlink" x="0px" y="0px" viewBox="0 0 242 242"
	 style="enable-background:new 0 0 242 242;" xml:space="preserve">
<style type="text/css">
	.st0{fill:#E75A56;}
	.st1{fill:#D5B9CF;}
	.st2{fill:#0B3D60;}
</style>
<g id="Escena-1">
	<g id="phone" transform="translate(19.5 44.45)">
		<path class="st0" d="M32.3,78.4l17.8-17.7l-9.4-38.7H-0.1C-0.1,41,3.6,59,10.9,76.2c7.1,16.6,17,31.4,29.9,44.2
			c12.8,12.8,27.5,22.8,44.2,29.9c17.2,7.3,35.3,10.9,54.2,10.9v-40.8l-38.7-9.3l-17.8,17.7c-10.4-6.1-19.9-13.4-28.4-21.9
			S38.4,88.8,32.3,78.4z"/>
		<g id="triangulo-3" transform="matrix(.606 0 0 .606 79.55 64.55)">
			
				<animateTransform  accumulate="none" additive="replace" attributeName="transform" calcMode="discrete" dur="1.417s" fill="remove" keyTimes="0;.02899;.029;.05899;.059;.08799;.088;.11799;.118;.14699;.147;.17599;.176;.20599;.206;.23499;.235;.26499;.265;.29399;.294;.32299;.323;.35299;.353;.38199;.382;.41199;.412;.44099;.441;.46999;.47;.49999;.5;.52899;.529;.55899;.559;.58799;.588;.61799;.618;.64699;.647;.67599;.676;.70599;.706;.73499;.735;.76499;.765;.79399;.794;.82299;.823;.85299;.853;.88199;.882;.91199;.912;.94099;.941;.96999;.97;1" repeatCount="indefinite" restart="always" type="translate" values="96.37,81.309;96.37,81.309;100.025,77.762;100.025,77.762;103.45,74.2;103.45,74.2;106.884,70.75;106.884,70.75;110.215,67.395;110.215,67.395;113.413,64.203;113.413,64.203;116.517,61.091;116.517,61.091;119.487,58.009;119.487,58.009;122.436,55.106;122.436,55.106;125.166,52.334;125.166,52.334;127.925,49.583;127.925,49.583;130.557,46.978;130.557,46.978;133.032,44.395;133.032,44.395;135.431,41.941;135.431,41.941;137.759,39.667;137.759,39.667;139.966,37.423;139.966,37.423;142.053,35.209;142.053,35.209;144.07,33.175;144.07,33.175;145.968,31.32;145.968,31.32;147.794,29.494;147.794,29.494;149.5,27.65;149.5,27.65;150.914,26.314;150.914,26.314;152.438,25.037;152.438,25.037;153.921,23.468;153.921,23.468;155.612,21.909;155.612,21.909;157.413,20.259;157.413,20.259;159.321,18.466;159.321,18.466;161.291,16.632;161.291,16.632;163.366,14.658;163.366,14.658;165.552,12.592;165.552,12.592;167.898,10.487;167.898,10.487;170.195,8.185;170.195,8.185;172.707,5.796;172.707,5.796;175.327,3.365;175.327,3.365">
				</animateTransform>
			
				<animateTransform  accumulate="none" additive="sum" attributeName="transform" calcMode="discrete" dur="1.417s" fill="remove" keyTimes="0;.02899;.029;.05899;.059;.08799;.088;.11799;.118;.14699;.147;.17599;.176;.20599;.206;.23499;.235;.26499;.265;.29399;.294;.32299;.323;.35299;.353;.38199;.382;.41199;.412;.44099;.441;.46999;.47;.49999;.5;.52899;.529;.55899;.559;.58799;.588;.61799;.618;.64699;.647;.67599;.676;.70599;.706;.73499;.735;.76499;.765;.79399;.794;.82299;.823;.85299;.853;.88199;.882;.91199;.912;.94099;.941;.96999;.97;1" repeatCount="indefinite" restart="always" type="scale" values=".606,.606;.606,.606;.632,.632;.632,.632;.658,.658;.658,.658;.683,.683;.683,.683;.708,.708;.708,.708;.732,.732;.732,.732;.755,.755;.755,.755;.777,.777;.777,.777;.798,.798;.798,.798;.819,.819;.819,.819;.839,.839;.839,.839;.859,.859;.859,.859;.877,.877;.877,.877;.895,.895;.895,.895;.912,.912;.912,.912;.929,.929;.929,.929;.944,.944;.944,.944;.959,.959;.959,.959;.974,.974;.974,.974;.987,.987;.987,.987;1,1;1,1;1.004,1.004;1.004,1.004;1.009,1.009;1.009,1.009;1.013,1.013;1.013,1.013;1.018,1.018;1.018,1.018;1.024,1.024;1.024,1.024;1.03,1.03;1.03,1.03;1.036,1.036;1.036,1.036;1.042,1.042;1.042,1.042;1.049,1.049;1.049,1.049;1.056,1.056;1.056,1.056;1.063,1.063;1.063,1.063;1.071,1.071;1.071,1.071;1.079,1.079;1.079,1.079">
				</animateTransform>
			
				<animateTransform  accumulate="none" additive="sum" attributeName="transform" calcMode="discrete" dur="1.417s" fill="remove" keyTimes="0;.02899;.029;.05899;.059;.08799;.088;.11799;.118;.14699;.147;.17599;.176;.29399;.294;.32299;.323;.35299;.353;.52899;.529;.55899;.559;.58799;.588;.61799;.618;.64699;.647;.67599;.676;.73499;.735;.76499;.765;.79399;.794;.82299;.823;.88199;.882;.91199;.912;1" repeatCount="indefinite" restart="always" type="translate" values="-27.85,-27.75;-27.85,-27.75;-27.95,-27.85;-27.95,-27.85;-27.8,-27.8;-27.8,-27.8;-27.85,-27.8;-27.85,-27.8;-27.85,-27.75;-27.85,-27.75;-27.9,-27.75;-27.9,-27.75;-27.85,-27.75;-27.85,-27.75;-27.85,-27.8;-27.85,-27.8;-27.9,-27.75;-27.9,-27.75;-27.85,-27.75;-27.85,-27.75;-27.8,-27.75;-27.8,-27.75;-27.8,-27.8;-27.8,-27.8;-27.65,-27.65;-27.65,-27.65;-27.75,-27.55;-27.75,-27.55;-27.75,-27.6;-27.75,-27.6;-27.75,-27.55;-27.75,-27.55;-27.75,-27.6;-27.75,-27.6;-27.75,-27.55;-27.75,-27.55;-27.8,-27.55;-27.8,-27.55;-27.75,-27.55;-27.75,-27.55;-27.8,-27.6;-27.8,-27.6;-27.7,-27.55;-27.7,-27.55">
				</animateTransform>
			
				<animate  accumulate="none" additive="replace" attributeName="opacity" calcMode="discrete" dur="1.417s" fill="remove" keyTimes="0;.02899;.029;.05899;.059;.08799;.088;.11799;.118;.14699;.147;.17599;.176;.20599;.206;.23499;.235;.26499;.265;.29399;.294;.32299;.323;.35299;.353;.38199;.382;.41199;.412;.44099;.441;.46999;.47;.49999;.5;.52899;.529;.55899;.559;.58799;.588;.61799;.618;.64699;.647;.67599;.676;.70599;.706;.73499;.735;.76499;.765;.79399;.794;.82299;.823;.85299;.853;.88199;.882;.91199;.912;.94099;.941;.96999;.97;1" repeatCount="indefinite" restart="always" values="0;0;.07;.07;.13;.13;.2;.2;.26;.26;.32;.32;.38;.38;.43;.43;.49;.49;.54;.54;.59;.59;.64;.64;.69;.69;.73;.73;.78;.78;.82;.82;.86;.86;.9;.9;.93;.93;.97;.97;1;1;.95;.95;.89;.89;.83;.83;.77;.77;.7;.7;.62;.62;.55;.55;.46;.46;.38;.38;.29;.29;.2;.2;.1;.1;0;0">
				</animate>
			<path class="st1" d="M0,28.7l0.2,0.1l55.1-14.8L14.8-26.4L0,28.7z"/>
		</g>
		<g id="triangulo-2" transform="matrix(.606 0 0 .606 58.35 85.7)">
			
				<animateTransform  accumulate="none" additive="replace" attributeName="transform" calcMode="discrete" dur="1.417s" fill="remove" keyTimes="0;.02899;.029;.05899;.059;.08799;.088;.11799;.118;.14699;.147;.17599;.176;.20599;.206;.23499;.235;.26499;.265;.29399;.294;.32299;.323;.35299;.353;.38199;.382;.41199;.412;.44099;.441;.46999;.47;.49999;.5;.52899;.529;.55899;.559;.58799;.588;.61799;.618;.64699;.647;.67599;.676;.70599;.706;.73499;.735;.76499;.765;.79399;.794;.82299;.823;.85299;.853;.88199;.882;.91199;.912;.94099;.941;.96999;.97;1" repeatCount="indefinite" restart="always" type="translate" values="75.17,102.52;75.17,102.52;77.862,99.812;77.862,99.812;80.433,97.266;80.433,97.266;82.968,94.718;82.968,94.718;85.436,92.215;85.436,92.215;87.69,89.826;87.69,89.826;90.017,87.517;90.017,87.517;92.326,85.198;92.326,85.198;94.486,83.046;94.486,83.046;96.516,80.966;96.516,80.966;98.517,78.875;98.517,78.875;100.464,76.964;100.464,76.964;102.332,75.082;102.332,75.082;104.131,73.275;104.131,73.275;105.809,71.509;105.809,71.509;107.419,69.816;107.419,69.816;108.956,68.206;108.956,68.206;110.52,66.77;110.52,66.77;112.016,65.268;112.016,65.268;113.194,63.993;113.194,63.993;114.5,62.6;114.5,62.6;115.764,61.464;115.764,61.464;117.139,60.338;117.139,60.338;118.521,59.021;118.521,59.021;119.911,57.562;119.911,57.562;121.563,56.113;121.563,56.113;123.271,54.521;123.271,54.521;125.041,52.891;125.041,52.891;126.916,51.116;126.916,51.116;128.852,49.249;128.852,49.249;130.948,47.398;130.948,47.398;132.995,45.345;132.995,45.345;135.314,43.257;135.314,43.257;137.577,41.077;137.577,41.077">
				</animateTransform>
			
				<animateTransform  accumulate="none" additive="sum" attributeName="transform" calcMode="discrete" dur="1.417s" fill="remove" keyTimes="0;.02899;.029;.05899;.059;.08799;.088;.11799;.118;.14699;.147;.17599;.176;.20599;.206;.23499;.235;.26499;.265;.29399;.294;.32299;.323;.35299;.353;.38199;.382;.41199;.412;.44099;.441;.46999;.47;.49999;.5;.52899;.529;.55899;.559;.58799;.588;.61799;.618;.64699;.647;.67599;.676;.70599;.706;.73499;.735;.76499;.765;.79399;.794;.82299;.823;.85299;.853;.88199;.882;.91199;.912;.94099;.941;.96999;.97;1" repeatCount="indefinite" restart="always" type="scale" values=".606,.606;.606,.606;.632,.632;.632,.632;.658,.658;.658,.658;.683,.683;.683,.683;.708,.708;.708,.708;.732,.732;.732,.732;.755,.755;.755,.755;.777,.777;.777,.777;.798,.798;.798,.798;.819,.819;.819,.819;.839,.839;.839,.839;.859,.859;.859,.859;.877,.877;.877,.877;.895,.895;.895,.895;.912,.912;.912,.912;.929,.929;.929,.929;.944,.944;.944,.944;.959,.959;.959,.959;.974,.974;.974,.974;.987,.987;.987,.987;1,1;1,1;1.004,1.004;1.004,1.004;1.009,1.009;1.009,1.009;1.013,1.013;1.013,1.013;1.018,1.018;1.018,1.018;1.024,1.024;1.024,1.024;1.03,1.03;1.03,1.03;1.036,1.036;1.036,1.036;1.042,1.042;1.042,1.042;1.049,1.049;1.049,1.049;1.056,1.056;1.056,1.056;1.063,1.063;1.063,1.063;1.071,1.071;1.071,1.071;1.079,1.079;1.079,1.079">
				</animateTransform>
			
				<animateTransform  accumulate="none" additive="sum" attributeName="transform" calcMode="discrete" dur="1.417s" fill="remove" keyTimes="0;.05899;.059;.08799;.088;.11799;.118;.14699;.147;.17599;.176;.20599;.206;.23499;.235;.26499;.265;.29399;.294;.32299;.323;.38199;.382;.41199;.412;.44099;.441;.46999;.47;.49999;.5;.52899;.529;.55899;.559;.58799;.588;.61799;.618;.64699;.647;.67599;.676;.70599;.706;.73499;.735;.79399;.794;.82299;.823;.85299;.853;.88199;.882;.91199;.912;.94099;.941;.96999;.97;1" repeatCount="indefinite" restart="always" type="translate" values="-27.85,-27.85;-27.85,-27.85;-27.85,-27.9;-27.85,-27.9;-27.9,-27.9;-27.9,-27.9;-27.95,-27.85;-27.95,-27.85;-27.8,-27.85;-27.8,-27.85;-27.85,-27.85;-27.85,-27.85;-27.9,-27.8;-27.9,-27.8;-27.85,-27.8;-27.85,-27.8;-27.85,-27.85;-27.85,-27.85;-27.9,-27.85;-27.9,-27.85;-27.85,-27.85;-27.85,-27.85;-27.85,-27.9;-27.85,-27.9;-27.85,-27.85;-27.85,-27.85;-27.8,-27.85;-27.8,-27.85;-27.8,-27.8;-27.8,-27.8;-27.85,-27.85;-27.85,-27.85;-27.9,-27.8;-27.9,-27.8;-27.8,-27.85;-27.8,-27.85;-27.65,-27.65;-27.65,-27.65;-27.75,-27.75;-27.75,-27.75;-27.8,-27.75;-27.8,-27.75;-27.75,-27.75;-27.75,-27.75;-27.7,-27.75;-27.7,-27.75;-27.75,-27.75;-27.75,-27.75;-27.8,-27.8;-27.8,-27.8;-27.75,-27.75;-27.75,-27.75;-27.75,-27.7;-27.75,-27.7;-27.8,-27.8;-27.8,-27.8;-27.7,-27.7;-27.7,-27.7;-27.8,-27.7;-27.8,-27.7;-27.7,-27.7;-27.7,-27.7">
				</animateTransform>
			
				<animate  accumulate="none" additive="replace" attributeName="opacity" calcMode="discrete" dur="1.417s" fill="remove" keyTimes="0;.02899;.029;.05899;.059;.08799;.088;.11799;.118;.14699;.147;.17599;.176;.20599;.206;.23499;.235;.26499;.265;.29399;.294;.32299;.323;.35299;.353;.38199;.382;.41199;.412;.44099;.441;.46999;.47;.49999;.5;.52899;.529;.55899;.559;.58799;.588;.61799;.618;.64699;.647;.67599;.676;.70599;.706;.73499;.735;.76499;.765;.79399;.794;.82299;.823;.85299;.853;.88199;.882;.91199;.912;.94099;.941;.96999;.97;1" repeatCount="indefinite" restart="always" values="0;0;.07;.07;.13;.13;.2;.2;.26;.26;.32;.32;.38;.38;.43;.43;.49;.49;.54;.54;.59;.59;.64;.64;.69;.69;.73;.73;.78;.78;.82;.82;.86;.86;.9;.9;.93;.93;.97;.97;1;1;.95;.95;.89;.89;.83;.83;.77;.77;.7;.7;.62;.62;.55;.55;.46;.46;.38;.38;.29;.29;.2;.2;.1;.1;0;0">
				</animate>
			<path class="st2" d="M55.3,14.1L14.8-26.4L0,28.9L55.3,14.1z"/>
		</g>
	</g>
</g>
</svg>
