<?xml version="1.0" encoding="utf-8"?>
<svg id="iconos_campaign_SVG" image-rendering="auto" baseProfile="basic" version="1.1" x="0px" y="0px" viewBox="0 0 314 272" xmlns="http://www.w3.org/2000/svg" xmlns:xlink="http://www.w3.org/1999/xlink">
  <g id="Escena-1r1" overflow="visible">
    <g id="formasr1" transform="matrix(.821 0 0 .821 20.6 9.25)">
      <g display="none">
        <g id="03" transform="translate(0 115.7)">
          <path fill="#DBC1D6" stroke="none" d="M0 102L102 102 102 0 0 0 0 102Z"/>
        </g>
        <animate attributeName="display" fill="freeze" repeatCount="1" dur="1.25s" keyTimes="0;.233;1" values="none;inline;inline"/>
      </g>
      <g display="none">
        <g id="02" transform="translate(-12.8 110.25)">
          <animateTransform attributeName="transform" additive="replace" type="translate" dur="1.25s" keyTimes="0;.26699;.267;.29999;.3;.33299;.333;.36699;.367;.39999;.4;.43299;.433;.46699;.467;.49999;.5;.53299;.533;.56699;.567;.59999;.6;.63299;.633;.66699;.667;.69999;.7;.73299;.733;.76699;.767;.79999;.8;.83299;.833;.86699;.867;.89999;.9;1" values="-12.8,110.25;-12.8,110.25;-5.7,113.25;-5.7,113.25;1,116.05;1,116.05;7.35,118.75;7.35,118.75;13.35,121.3;13.35,121.3;19,123.65;19,123.65;24.3,125.9;24.3,125.9;29.2,127.95;29.2,127.95;33.75,129.85;33.75,129.85;37.9,131.65;37.9,131.65;41.75,133.25;41.75,133.25;45.2,134.7;45.2,134.7;48.25,136;48.25,136;51,137.15;51,137.15;53.35,138.15;53.35,138.15;55.35,139;55.35,139;57,139.65;57,139.65;58.25,140.2;58.25,140.2;59.15,140.6;59.15,140.6;59.7,140.8;59.7,140.8;59.9,140.9;59.9,140.9" calcMode="discrete" fill="freeze"/>
          <path fill="#163C60" stroke="none" d="M64 0L0 110.85 128 110.85 64 0Z"/>
        </g>
        <animate attributeName="display" fill="freeze" repeatCount="1" dur="1.25s" keyTimes="0;.233;1" values="none;inline;inline"/>
      </g>
      <g id="01" transform="translate(-4.2 110.25)">
        <animateTransform attributeName="transform" additive="replace" type="translate" dur="1.25s" keyTimes="0;.26699;.267;.29999;.3;.33299;.333;.36699;.367;.39999;.4;.43299;.433;.46699;.467;.49999;.5;.53299;.533;.56699;.567;.59999;.6;.63299;.633;.66699;.667;.69999;.7;.73299;.733;.76699;.767;.79999;.8;.83299;.833;.86699;.867;.89999;.9;1" values="-4.2,110.25;-4.2,110.25;10.55,118.8;10.55,118.8;24.6,126.95;24.6,126.95;37.85,134.6;37.85,134.6;50.3,141.85;50.3,141.85;62.05,148.65;62.05,148.65;73.05,155.05;73.05,155.05;83.25,160.95;83.25,160.95;92.75,166.45;92.75,166.45;101.45,171.5;101.45,171.5;109.4,176.1;109.4,176.1;116.6,180.25;116.6,180.25;123,184;123,184;128.7,187.3;128.7,187.3;133.6,190.15;133.6,190.15;137.8,192.55;137.8,192.55;141.2,194.55;141.2,194.55;143.85,196.1;143.85,196.1;145.75,197.15;145.75,197.15;146.85,197.85;146.85,197.85;147.25,198.05;147.25,198.05" calcMode="discrete" fill="freeze"/>
        <path fill="#E75A56" stroke="none" d="M94.65 94.65Q110.85 78.4 110.85 55.45 110.85 32.45 94.65 16.25 78.4 0 55.45 0 32.45 0 16.25 16.25 0 32.45 0 55.45 0 78.4 16.25 94.65 32.45 110.85 55.45 110.85 78.4 110.85 94.65 94.65Z"/>
      </g>
      <g display="none">
        <g id="06" transform="translate(105.45 2.2)">
          <animateTransform attributeName="transform" additive="replace" type="translate" dur="1.25s" keyTimes="0;.26699;.267;.29999;.3;.33299;.333;.36699;.367;.39999;.4;.43299;.433;.46699;.467;.49999;.5;.53299;.533;.56699;.567;.59999;.6;.63299;.633;.66699;.667;.69999;.7;.73299;.733;.76699;.767;.79999;.8;.83299;.833;1" values="105.45,2.2;105.45,2.2;105.35,2;105.35,2;105.25,1.8;105.25,1.8;105.15,1.6;105.15,1.6;105.05,1.4;105.05,1.4;105,1.25;105,1.25;104.9,1.1;104.9,1.1;104.85,.95;104.85,.95;104.8,.8;104.8,.8;104.7,.65;104.7,.65;104.65,.55;104.65,.55;104.6,.45;104.6,.45;104.55,.35;104.55,.35;104.55,.25;104.55,.25;104.5,.2;104.5,.2;104.45,.15;104.45,.15;104.45,.1;104.45,.1;104.4,.05;104.4,.05;104.4,0;104.4,0" calcMode="discrete" fill="freeze"/>
          <path fill="#E75A56" stroke="none" d="M94.6 94.7Q110.85 78.45 110.85 55.5 110.85 32.55 94.6 16.3 78.4 .05 55.4 .05 32.45 .05 16.25 16.3 0 32.55 0 55.5 0 78.45 16.25 94.7 32.45 110.95 55.4 110.95 78.4 110.95 94.6 94.7Z"/>
        </g>
        <animate attributeName="display" fill="freeze" repeatCount="1" dur="1.25s" keyTimes="0;.233;1" values="none;inline;inline"/>
      </g>
      <g display="none">
        <g id="05" transform="translate(109.85 6.65)">
          <animateTransform attributeName="transform" additive="replace" type="translate" dur="1.25s" keyTimes="0;.26699;.267;.29999;.3;.33299;.333;.36699;.367;.39999;.4;.43299;.433;.46699;.467;.49999;.5;.53299;.533;.56699;.567;.59999;.6;.63299;.633;.66699;.667;.69999;.7;.73299;.733;.76699;.767;.79999;.8;.83299;.833;.86699;.867;.89999;.9;1" values="109.85,6.65;109.85,6.65;115.7,12.45;115.7,12.45;121.3,17.95;121.3,17.95;126.55,23.15;126.55,23.15;131.5,28.05;131.5,28.05;136.2,32.65;136.2,32.65;140.55,36.95;140.55,36.95;144.6,41;144.6,41;148.4,44.7;148.4,44.7;151.85,48.1;151.85,48.1;155,51.25;155,51.25;157.85,54.05;157.85,54.05;160.4,56.6;160.4,56.6;162.7,58.8;162.7,58.8;164.65,60.75;164.65,60.75;166.3,62.4;166.3,62.4;167.65,63.7;167.65,63.7;168.7,64.75;168.7,64.75;169.45,65.5;169.45,65.5;169.9,65.95;169.9,65.95;170.05,66.1;170.05,66.1" calcMode="discrete" fill="freeze"/>
          <path fill="#DBC1D6" stroke="none" d="M0 102L102 102 102 0 0 0 0 102Z"/>
        </g>
        <animate attributeName="display" fill="freeze" repeatCount="1" dur="1.25s" keyTimes="0;.233;1" values="none;inline;inline"/>
      </g>
      <g id="04" transform="translate(96.85 2.2)">
        <animateTransform attributeName="transform" additive="replace" type="translate" dur="1.25s" keyTimes="0;.26699;.267;.29999;.3;.33299;.333;.36699;.367;.39999;.4;.43299;.433;.46699;.467;.49999;.5;.53299;.533;.56699;.567;.59999;.6;.63299;.633;.66699;.667;.69999;.7;.73299;.733;.76699;.767;.79999;.8;.83299;.833;.86699;.867;.89999;.9;1" values="96.85,2.2;96.85,2.2;108.75,13.3;108.75,13.3;120.05,23.85;120.05,23.85;130.75,33.85;130.75,33.85;140.8,43.25;140.8,43.25;150.3,52.1;150.3,52.1;159.15,60.35;159.15,60.35;167.4,68.05;167.4,68.05;175.05,75.15;175.05,75.15;182.05,81.7;182.05,81.7;188.45,87.7;188.45,87.7;194.25,93.1;194.25,93.1;199.45,97.95;199.45,97.95;204.05,102.25;204.05,102.25;208,105.95;208,105.95;211.35,109.1;211.35,109.1;214.1,111.65;214.1,111.65;216.25,113.65;216.25,113.65;217.8,115.05;217.8,115.05;218.7,115.9;218.7,115.9;219,116.2;219,116.2" calcMode="discrete" fill="freeze"/>
        <path fill="#163C60" stroke="none" d="M0 0L64 110.9 128 0 0 0Z"/>
      </g>
    </g>
  </g>
</svg>