<?xml version="1.0" encoding="utf-8"?>
<!-- Generator: Adobe Illustrator 23.0.6, SVG Export Plug-In . SVG Version: 6.00 Build 0)  -->
<svg version="1.1" id="iconos_code_SVG" image-rendering="auto"
	 xmlns="http://www.w3.org/2000/svg" xmlns:xlink="http://www.w3.org/1999/xlink" x="0px" y="0px" viewBox="0 0 307 166"
	 style="enable-background:new 0 0 307 166;" xml:space="preserve">
<style type="text/css">
	.st0{display:none;}
	.st1{display:inline;}
	.st2{fill:#163C60;}
	.st3{fill:#E75A56;}
	.st4{fill:#D5B9CF;}
</style>
<g id="Escena-1r1">
	<g id="coder1" transform="matrix(.723 0 0 .723 13.35 18.7)">
		<g class="st0">
			<g id="barra" transform="matrix(.576 -.333 .333 .576 129.6 57.7)" class="st1">
				
					<animateTransform  accumulate="none" additive="replace" attributeName="transform" calcMode="discrete" dur="2.042s" fill="freeze" keyTimes="0;.18399;.184;.20399;.204;.22399;.224;.24499;.245;.26499;.265;.28599;.286;.30599;.306;.32599;.326;.34699;.347;.36699;.367;.38799;.388;.40799;.408;.42899;.429;.44899;.449;.46899;.469;.48999;.49;.69399;.694;.71399;.714;.73499;.735;.75499;.755;.77499;.775;.79599;.796;.81599;.816;.83699;.837;.85699;.857;.87699;.877;.89799;.898;.91799;.918;.93899;.939;.95899;.959;.97899;.979;1" restart="always" type="translate" values="193.928,89.036;193.928,89.036;194.001,89.155;194.001,89.155;193.956,89.093;193.956,89.093;193.982,89.163;193.982,89.163;194.016,89.099;194.016,89.099;193.967,89.033;193.967,89.033;193.979,89.02;193.979,89.02;193.911,89.04;193.911,89.04;193.91,89.056;193.91,89.056;193.959,89.05;193.959,89.05;193.954,89.029;193.954,89.029;193.976,89.118;193.976,89.118;193.888,89.066;193.888,89.066;193.98,89.033;193.98,89.033;193.968,89.089;193.968,89.089;193.981,89.062;193.981,89.062;193.892,89.032;193.892,89.032;193.837,89.003;193.837,89.003;193.891,89.071;193.891,89.071;193.933,89.007;193.933,89.007;193.868,89.019;193.868,89.019;193.791,89.062;193.791,89.062;193.831,89.045;193.831,89.045;193.855,89.109;193.855,89.109;193.831,89.052;193.831,89.052;193.817,89.04;193.817,89.04;193.808,89.032;193.808,89.032;193.87,88.977;193.87,88.977;193.835,89.044;193.835,89.044;193.879,89.043;193.879,89.043;193.845,89.073;193.845,89.073;193.8,89;193.8,89">
					</animateTransform>
				
					<animateTransform  accumulate="none" additive="sum" attributeName="transform" calcMode="discrete" dur="2.042s" fill="freeze" keyTimes="0;.18399;.184;.22399;.224;.24499;.245;.48999;.49;.69399;.694;.71399;.714;.73499;.735;.75499;.755;.77499;.775;.79599;.796;.81599;.816;.83699;.837;.85699;.857;.87699;.877;.89799;.898;.91799;.918;.93899;.939;.95899;.959;.97899;.979;1" restart="always" type="rotate" values="-29,0,0;-29,0,0;-29.859,0,0;-29.859,0,0;-29.86,0,0;-29.86,0,0;-29.859,0,0;-29.859,0,0;-29,0,0;-29,0,0;-28.853,0,0;-28.853,0,0;-25.84,0,0;-25.84,0,0;-20.818,0,0;-20.818,0,0;-13.789,0,0;-13.789,0,0;-4.762,0,0;-4.762,0,0;-2.55,0,0;-2.55,0,0;-6.025,0,0;-6.025,0,0;-7.307,0,0;-7.307,0,0;-6.771,0,0;-6.771,0,0;-4.043,0,0;-4.043,0,0;-.06,0,0;-.06,0,0;-1.763,0,0;-1.763,0,0;-1.274,0,0;-1.274,0,0;-.279,0,0;-.279,0,0;0,0,0;0,0,0">
					</animateTransform>
				
					<animateTransform  accumulate="none" additive="sum" attributeName="transform" calcMode="discrete" dur="2.042s" fill="freeze" keyTimes="0;.18399;.184;.20399;.204;.22399;.224;.24499;.245;.26499;.265;.28599;.286;.30599;.306;.32599;.326;.34699;.347;.36699;.367;.38799;.388;.40799;.408;.42899;.429;.44899;.449;.46899;.469;.48999;.49;.69399;.694;.73499;.735;.77499;.775;.79599;.796;.81599;.816;.87699;.877;1" restart="always" type="scale" values=".665,.665;.665,.665;.673,.673;.673,.673;.703,.703;.703,.703;.752,.752;.752,.752;.821,.821;.821,.821;.91,.91;.91,.91;.987,.987;.987,.987;.943,.943;.943,.943;.919,.919;.919,.919;.915,.915;.915,.915;.93,.93;.93,.93;.965,.965;.965,.965;.988,.988;.988,.988;.976,.976;.976,.976;.984,.984;.984,.984;.993,.993;.993,.993;1,.999;1,.999;.997,.997;.997,.997;.998,.998;.998,.998;1,.999;1,.999;1,1;1,1;1,.999;1,.999;1,1;1,1">
					</animateTransform>
				
					<animateTransform  accumulate="none" additive="sum" attributeName="transform" calcMode="discrete" dur="2.042s" fill="freeze" keyTimes="0;.18399;.184;.20399;.204;.22399;.224;.24499;.245;.26499;.265;.28599;.286;.30599;.306;.32599;.326;.34699;.347;.36699;.367;.38799;.388;.40799;.408;.42899;.429;.44899;.449;.46899;.469;.48999;.49;.71399;.714;.73499;.735;.75499;.755;.79599;.796;.81599;.816;.83699;.837;.85699;.857;.89799;.898;.91799;.918;.93899;.939;.95899;.959;.97899;.979;1" restart="always" type="translate" values="-60.2,-89.1;-60.2,-89.1;-60.2,-89.2;-60.2,-89.2;-60.15,-89.15;-60.15,-89.15;-60.15,-89.2;-60.15,-89.2;-60.15,-89.15;-60.15,-89.15;-60.2,-89.15;-60.2,-89.15;-60.25,-89.1;-60.25,-89.1;-60.15,-89.1;-60.15,-89.1;-60.1,-89.15;-60.1,-89.15;-60.2,-89.15;-60.2,-89.15;-60.2,-89.1;-60.2,-89.1;-60.2,-89.2;-60.2,-89.2;-60.15,-89.1;-60.15,-89.1;-60.2,-89.15;-60.2,-89.15;-60.15,-89.15;-60.15,-89.15;-60.2,-89.1;-60.2,-89.1;-60.1,-89.1;-60.1,-89.1;-60.15,-89.2;-60.15,-89.2;-60.15,-89.15;-60.15,-89.15;-60.1,-89.15;-60.1,-89.15;-60.15,-89.15;-60.15,-89.15;-60.1,-89.2;-60.1,-89.2;-60.15,-89.15;-60.15,-89.15;-60.1,-89.15;-60.1,-89.15;-60.2,-89.05;-60.2,-89.05;-60.15,-89.2;-60.15,-89.2;-60.2,-89.2;-60.2,-89.2;-60.15,-89.15;-60.15,-89.15;-60.05,-89;-60.05,-89">
					</animateTransform>
				<path class="st2" d="M120.1,15l-26-15L0,163l26,15L120.1,15z"/>
			</g>
			
				<animate  accumulate="none" additive="replace" attributeName="display" calcMode="linear" dur="2.042s" fill="freeze" keyTimes="0;.163;1" repeatCount="1" restart="always" values="none;inline;inline">
				</animate>
		</g>
		<g id="triangulo-3" transform="translate(77.75 25.5)">
			
				<animateTransform  accumulate="none" additive="replace" attributeName="transform" calcMode="discrete" dur="2.042s" fill="freeze" keyTimes="0;.16299;.163;.18399;.184;.20399;.204;.22399;.224;.24499;.245;.26499;.265;.28599;.286;.30599;.306;.32599;.326;.34699;.347;.36699;.367;.38799;.388;1" restart="always" type="translate" values="77.75,25.5;77.75,25.5;65.35,25.5;65.35,25.5;54,25.5;54,25.5;43.75,25.5;43.75,25.5;34.55,25.5;34.55,25.5;26.45,25.5;26.45,25.5;19.45,25.5;19.45,25.5;13.5,25.5;13.5,25.5;8.65,25.5;8.65,25.5;4.85,25.5;4.85,25.5;2.15,25.5;2.15,25.5;.55,25.5;.55,25.5;0,25.5;0,25.5">
				</animateTransform>
			<path class="st3" d="M116.1,0L0,63.5l116.1,63.6V0z"/>
		</g>
		<g id="triangulo-2" transform="translate(193.8 25.5)">
			
				<animateTransform  accumulate="none" additive="replace" attributeName="transform" calcMode="discrete" dur="2.042s" fill="freeze" keyTimes="0;.16299;.163;.18399;.184;.20399;.204;.22399;.224;.24499;.245;.26499;.265;.28599;.286;.30599;.306;.32599;.326;.34699;.347;.36699;.367;.38799;.388;1" restart="always" type="translate" values="193.8,25.5;193.8,25.5;206.2,25.5;206.2,25.5;217.55,25.5;217.55,25.5;227.8,25.5;227.8,25.5;237,25.5;237,25.5;245.1,25.5;245.1,25.5;252.1,25.5;252.1,25.5;258.05,25.5;258.05,25.5;262.9,25.5;262.9,25.5;266.7,25.5;266.7,25.5;269.4,25.5;269.4,25.5;271,25.5;271,25.5;271.55,25.5;271.55,25.5">
				</animateTransform>
			<path class="st4" d="M-0.1,0v127.1l116.1-63.6L-0.1,0z"/>
		</g>
	</g>
</g>
</svg>
