<?xml version="1.0" encoding="utf-8"?>
<!-- Generator: Adobe Illustrator 27.3.1, SVG Export Plug-In . SVG Version: 6.00 Build 0)  -->
<svg version="1.1" id="Capa_1" xmlns="http://www.w3.org/2000/svg" xmlns:xlink="http://www.w3.org/1999/xlink" x="0px" y="0px"
	 viewBox="0 0 407.7 5454.6" style="enable-background:new 0 0 407.7 5454.6;" xml:space="preserve">
<style type="text/css">
	.st0{fill:#FFFFFF;}
	.st1{fill:#D5B9CF;}
	.st2{display:none;}
	.st3{display:inline;}
	.st4{opacity:0.2;fill:#0096D7;enable-background:new    ;}
	.st5{fill:#F4DBD7;}
</style>
<rect class="st0" width="407.7" height="5454.6"/>
<g id="Footer">
</g>
<g id="Next_Project">
</g>
<g id="Similar_Project_x3F_">
</g>
<g id="Video_Promo">
</g>
<g id="Testimonial">
</g>
<polygon class="st1" points="0,4435.1 0,5454.6 407.7,5454.6 407.7,4222.5 "/>
<g id="Mosaico">
</g>
<g id="Text_Description">
</g>
<g id="Hero">
</g>
<g id="Header_00000167392320615729991820000010497648781550039204_">
</g>
<g id="Grid" class="st2">
	<g class="st3">
		<rect x="21.6" y="-22.5" class="st4" width="173.3" height="8387.3"/>
		<rect x="213" y="-22.5" class="st4" width="173.3" height="8387.3"/>
	</g>
</g>
<g id="Grid_copia" class="st2">
	<g class="st3">
		<rect x="45.1" y="-12.9" class="st4" width="150.8" height="5834.8"/>
		<rect x="211.8" y="-12.9" class="st4" width="150.8" height="5834.8"/>
	</g>
</g>
<polygon class="st1" points="407.7,1853.1 0,2061.6 0,3641.4 407.7,3429.5 "/>
<polygon class="st5" points="0,557.1 0,559.6 0,1002.5 407.7,796 407.7,793.5 407.7,350.6 "/>
</svg>
