<?xml version="1.0" encoding="utf-8"?>
<svg id="logo_T2M_SVG" image-rendering="auto" baseProfile="basic" version="1.1" x="0px" y="0px" viewBox="0 0 540 380" xmlns="http://www.w3.org/2000/svg" xmlns:xlink="http://www.w3.org/1999/xlink">
  <g id="Escena-1r1" overflow="visible">
    <g id="logor1" transform="translate(7.95 60.45)">
      <g mask="url(#mask_2)">
        <g display="none">
          <g id="the" transform="translate(0 -26.15)" opacity="0">
            <animateTransform attributeName="transform" additive="replace" type="translate" dur="3.958s" keyTimes="0;.368;.421;.474;1" values="0,-26.15;0,-26.15;0,45.85;0,2.85;0,2.85" keySplines=".333 .667 .595 1;.333 .667 .595 1;.387 .248 .667 1;.1 .1 .9 .9" calcMode="spline" fill="freeze"/>
            <animate attributeName="opacity" dur="3.958s" keyTimes="0;.368;.421;1" values="0;0;1;1" keySplines=".333 .667 .595 1;.333 .667 .595 1;.387 .248 .667 1" calcMode="spline" fill="freeze"/>
            <g id="the_0.0">
              <g>
                <g id="Layer10_0_FILL">
                  <path fill="#163C60" id="haha" stroke="none" d="M7.35 83.9L0 83.9 0 111.1 7.35 111.1 7.35 101.65 34.5 101.65 34.5 93.3 7.35 93.3 7.35 83.9M34.5 43.4L0 43.4 0 51.75 13.3 51.75 13.3 65.05 0 65.05 0 73.4 34.5 73.4 34.5 65.05 20.7 65.05 20.7 51.75 34.5 51.75 34.5 43.4M20.6 21.3L20.6 4.85 13.2 4.85 13.2 21.3 7.35 21.3 7.35 0 0 0 0 29.6 34.5 29.6 34.5 0 27.1 0 27.1 21.3 20.6 21.3Z"/>
                </g>
              </g>
            </g>
          </g>
          <animate attributeName="display" fill="freeze" repeatCount="1" dur="3.958s" keyTimes="0;.368;1" values="none;inline;inline"/>
        </g>
      </g>
      <mask id="mask_2">
        <g>
          <g display="none">
            <g id="logo_6.40">
              <g>
                <g id="Layer5_0_FILL">
                  <path fill="#FFF" stroke="none" d="M41 -43.2L-25.9 -43.2 -25.9 201.7 41 201.7 41 -43.2Z" fill-opacity="1"/>
                </g>
              </g>
            </g>
            <animate attributeName="display" fill="freeze" repeatCount="1" dur="3.958s" keyTimes="0;.421;1" values="none;inline;inline"/>
          </g>
          <g>
            <g id="logo_6.0">
              <g>
                <g id="Layer4_0_FILL">
                  <path fill="#FFF" stroke="none" d="M41 .3L19.7 .3 -3.95 48.65 -25.9 48.65 -25.9 201.65 41 201.65 41 .3Z" fill-opacity="1"/>
                </g>
              </g>
            </g>
            <animate attributeName="display" fill="freeze" repeatCount="1" dur="3.958s" keyTimes="0;.421;1" values="inline;none;none"/>
          </g>
        </g>
      </mask>
      <g mask="url(#mask_1)">
        <g display="none">
          <g id="two" transform="translate(46.4 -118.4)" opacity="0">
            <animateTransform attributeName="transform" additive="replace" type="translate" dur="3.958s" keyTimes="0;.474;.526;.59;.64199;.737;1" values="46.4,-118.4;46.4,-118.4;46.4,51.6;46.4,2.6;46.4,2.6;46.4,44.6;46.4,44.6" keySplines=".333 .667 .595 1;.333 .667 .595 1;.387 .248 .667 1;.1 .1 .9 .9;.451 .2 .75 .7;.1 .1 .9 .9" calcMode="spline" fill="freeze"/>
            <animate attributeName="opacity" dur="3.958s" keyTimes="0;.474;.526;1" values="0;0;1;1" keySplines=".333 .667 .595 1;.333 .667 .595 1;.387 .248 .667 1" calcMode="spline" fill="freeze"/>
            <g id="two_0.0">
              <g>
                <g id="Layer9_0_FILL">
                  <path fill="#163C60" stroke="none" d="M7.85 92.3L.45 92.3 .45 119.5 7.85 119.5 7.85 110.1 34.95 110.1 34.95 101.75 7.85 101.75 7.85 92.3M34.95 44.8L.45 44.8 .45 53.15 21.05 53.15 5.4 61.3 5.4 67.2 21.4 75.4 .45 75.4 .45 83.8 34.95 83.8 34.95 74.15 15.9 64.55 34.95 54.85 34.95 44.8M35.45 17.6Q35.45 10.2 30.5 5.15 25.4 0 17.7 0 9.95 0 4.95 5.15 0 10.15 0 17.6 0 25.05 4.95 30.15 10 35.3 17.7 35.3 25.4 35.3 30.5 30.15 35.45 25.05 35.45 17.6M27.65 17.6Q27.65 21.75 24.95 24.25 22.25 26.75 17.7 26.75 13.1 26.75 10.4 24.25 7.7 21.8 7.7 17.6 7.7 13.45 10.4 11 13.1 8.5 17.7 8.5 22.25 8.5 24.95 11 27.65 13.45 27.65 17.6Z"/>
                </g>
              </g>
            </g>
          </g>
          <animate attributeName="display" fill="freeze" repeatCount="1" dur="3.958s" keyTimes="0;.474;1" values="none;inline;inline"/>
        </g>
      </g>
      <mask id="mask_1">
        <g>
          <g display="none">
            <g id="logo_4.50">
              <g>
                <g id="Layer3_0_FILL">
                  <path fill="#FFF" stroke="none" d="M105.8 -43.2L38.9 -43.2 38.9 201.7 105.8 201.7 105.8 -43.2Z" fill-opacity="1"/>
                </g>
              </g>
            </g>
            <animate attributeName="display" fill="freeze" repeatCount="1" dur="3.958s" keyTimes="0;.526;1" values="none;inline;inline"/>
          </g>
          <g>
            <g id="logo_4.0">
              <g>
                <g id="Layer2_0_FILL">
                  <path fill="#FFF" stroke="none" d="M71.55 .6L48.05 48.65 26.1 48.65 26.1 201.65 93 201.65 93 .6 71.55 .6Z" fill-opacity="1"/>
                </g>
              </g>
            </g>
            <animate attributeName="display" fill="freeze" repeatCount="1" dur="3.958s" keyTimes="0;.526;1" values="inline;none;none"/>
          </g>
        </g>
      </mask>
      <g>
        <g display="none">
          <g id="marias" transform="translate(-114.25 0)" opacity="0">
            <animateTransform attributeName="transform" additive="replace" type="translate" dur="3.958s" keyTimes="0;.558;.642;.737;1" values="-114.25,0;-114.25,0;134.75,0;90.75,0;90.75,0" keySplines=".25 .5 .5 1;.25 .5 .5 1;.451 .2 .75 .7;.1 .1 .9 .9" calcMode="spline" fill="freeze"/>
            <animate attributeName="opacity" dur="3.958s" keyTimes="0;.558;.642;1" values="0;0;1;1" keySplines=".25 .5 .5 1;.25 .5 .5 1;.451 .2 .75 .7" calcMode="spline" fill="freeze"/>
            <g id="marias_0.0">
              <g>
                <g id="Layer8_0_FILL">
                  <path fill="#163C60" stroke="none" d="M39 .4L29.35 .4 19.75 19.45 10.05 .4 0 .4 0 34.9 8.35 34.9 8.35 14.3 16.5 30 22.4 30 30.6 13.95 30.6 34.9 39 34.9 39 .4M55.55 34.9L57.4 29.25 70.25 29.25 72.05 34.9 80.9 34.9 69 .4 58.75 .4 46.8 34.9 55.55 34.9M63.8 8.95L67.95 21.9 59.75 21.9 63.8 8.95M111.75 3.8Q108.25 .4 102.25 .4L88.7 .4 88.7 34.9 97.05 34.9 97.05 22.15 100.95 22.15 107.75 34.9 117.25 34.9 109 20.95Q114.95 17.85 114.95 11.45 114.95 6.85 111.75 3.8M102.25 7.3Q104.15 7.3 105.3 8.45 106.4 9.55 106.4 11.3 106.4 13.1 105.3 14.2 104.15 15.3 102.25 15.3L97.05 15.3 97.05 7.3 102.25 7.3M132.95 .4L124.6 .4 124.6 34.9 132.95 34.9 132.95 .4M165.3 34.9L174.15 34.9 162.2 .4 152 .4 140.05 34.9 148.8 34.9 150.65 29.25 163.5 29.25 165.3 34.9M153 21.9L157.05 8.95 161.2 21.9 153 21.9M204.15 32.3Q207.85 29.15 207.85 24.1 207.85 16.75 198.7 14.25 194.15 13.25 192.4 12.65 189.55 11.65 189.55 9.8 189.55 8.35 190.55 7.45 191.55 6.6 193.25 6.6 195.4 6.6 196.8 8.15 198 9.5 198.4 11.9L207.25 11.9Q206.8 6.2 202.8 3 199.1 0 193.55 0 187.9 0 184.55 2.6 181.05 5.3 181.05 10.1 181.05 17.5 190.2 19.95 196 21.55 196.45 21.75 199.3 22.95 199.3 25.3 199.3 26.85 198 27.8 196.7 28.75 194.65 28.75 190 28.75 189.1 23.75L180.25 23.75Q180.9 29.3 184.85 32.4 188.65 35.4 194.65 35.4 200.5 35.4 204.15 32.3Z"/>
                </g>
              </g>
            </g>
          </g>
          <animate attributeName="display" fill="freeze" repeatCount="1" dur="3.958s" keyTimes="0;.558;1" values="none;inline;inline"/>
        </g>
        <animate attributeName="mask" repeatCount="1" dur="3.958s" keyTimes="0;.558;.642;1" values="none;url(#mask_);none;none" fill="freeze"/>
      </g>
      <mask id="mask_">
        <g>
          <g display="none">
            <g id="logo_2.53">
              <g>
                <g id="Layer1_0_FILL">
                  <path fill="#FFF" stroke="none" d="M356.15 -.8L115.2 -.8 95.85 36.65 356.15 36.65 356.15 -.8Z" fill-opacity="1"/>
                </g>
              </g>
            </g>
            <animate attributeName="display" fill="freeze" repeatCount="1" dur="3.958s" keyTimes="0;.558;.642;1" values="none;inline;none;none"/>
          </g>
        </g>
      </mask>
      <g>
        <g id="barra" transform="translate(2.45 .55)" opacity="1">
          <animateTransform attributeName="transform" additive="replace" type="translate" dur="3.958s" keyTimes="0;.39999;.453;.50499;.558;1" values="2.45,.55;2.45,.55;54.45,.55;54.45,.55;94.45,.55;94.45,.55" keySplines=".1 .1 .9 .9;.239 .376 .667 1;.1 .1 .9 .9;0 0 1 1;.1 .1 .9 .9" calcMode="spline" fill="freeze"/>
          <animate attributeName="opacity" dur="3.958s" keyTimes="0;.24199;.337;.36799;.368;.62099;.674;1" values="1;1;0;0;1;1;0;0" keySplines=".1 .1 .9 .9;.333 0 .325 .7;.1 .1 .9 .9;.1 .1 .9 .9;.1 .1 .9 .9;0 0 1 1;.1 .1 .9 .9" calcMode="spline" fill="freeze"/>
          <g>
            <g id="Layer7_0_FILL">
              <path fill="#E75A56" stroke="none" d="M17.45 0L0 34.4 9.45 34.4 27.05 0 17.45 0Z"/>
            </g>
          </g>
        </g>
        <animate attributeName="display" fill="freeze" repeatCount="1" dur="3.958s" keyTimes="0;.684;1" values="inline;none;none"/>
      </g>
      <g display="none">
        <g id="tri.__C3.__A1ngulo" transform="translate(46.8 -53.45)">
          <animateTransform attributeName="transform" additive="replace" type="translate" dur="3.958s" keyTimes="0;.568;.642;.737;1" values="46.8,-53.45;46.8,-53.45;46.8,-33.45;46.8,.55;46.8,.55" keySplines="0 0 1 1;0 0 1 1;.451 .2 .75 .7;.1 .1 .9 .9" calcMode="spline" fill="freeze"/>
          <g id="triángulo_0.0">
            <g>
              <g id="Layer6_0_FILL">
                <path fill="#E75A56" stroke="none" d="M34.7 0L0 0 17.1 34.4 34.7 0Z"/>
              </g>
            </g>
          </g>
        </g>
        <animate attributeName="display" fill="freeze" repeatCount="1" dur="3.958s" keyTimes="0;.568;1" values="none;inline;inline"/>
      </g>
    </g>
  </g>
</svg>